{
  "title": "CHF",
  "nodes": {
    "start1": {
      "position": {
        "top": 18.991478915771488,
        "left": 1253.9914216953125
      },
      "id": "start1",
      "type": "start"
    },
    "measurement15": {
      "shortText": "Blood pressure",
      "measurementType": "BLOOD_PRESSURE_PULSE",
      "measurementForm": "automatic",
      "position": {
        "top": 950.994286532959,
        "left": 1362.997159
      },
      "id": "measurement15",
      "type": "measurement",
      "headline": "Measure blood pressure",
      "helpText": "",
      "helpImage": "null",
      "ctgSensitivityHigh": "true"
    },
    "measurement3": {
      "shortText": "Oxygen saturation",
      "measurementType": "SATURATION",
      "measurementForm": "automatic",
      "position": {
        "top": 427.99715518530274,
        "left": 1253.9914216953125
      },
      "id": "measurement3",
      "type": "measurement",
      "headline": "Saturation",
      "helpText": "",
      "helpImage": "null",
      "ctgSensitivityHigh": "true"
    },
    "delay44": {
      "shortText": "Saturation countdown",
      "position": {
        "top": 334.99999332006837,
        "left": 1109.9999666171875
      },
      "id": "delay44",
      "text": "Keep your hand steady and wait for the measurement. This takes approximately a minute.",
      "countType": "Up",
      "type": "delay",
      "countTime": "60"
    },
    "text10": {
      "position": {
        "top": 811.9886102634277,
        "left": 1295.9942293125
      },
      "id": "text10",
      "text": "Measuring blood pressure:\nPlease do not move around or talk while your blood pressure is measured.\n\nPush \"Next\" if you have been seated calmly for about 5 minutes from when you mounted the blood pressure cuff.\n\nPlease wait if 5 minutes has not yet passed and push \"Next\" when about 5 minutes has passed.",
      "type": "text",
      "headline": "",
      "helpText": "",
      "helpImage": "null"
    },
    "text2": {
      "position": {
        "top": 123.9914789157715,
        "left": 1178.9914216953125
      },
      "id": "text2",
      "text": "CHF measurements and questions:\nIn the following you will be asked to take a number of measurements and answer a number of questions about your condition.\n\nPlease start by mounting the blood pressure device cuff on your arm. It is best to mount the cuff on the same arm each time.\n\n(Having mounted the cuff now, you may ignore the message to mount the cuff that appears later)",
      "type": "text",
      "headline": "",
      "helpText": "",
      "helpImage": "null"
    },
    "text5": {
      "position": {
        "top": 226.98864078100587,
        "left": 1179.9999666171875
      },
      "id": "text5",
      "text": "Measuring oxygen saturation:\nFeel if your finger is warm.\n\nIf it feels cold when you touch your finger to the skin of your neck you should heat your finger. You can for instance heat your finger be putting your hand into warm water or by placing your hand in your armpit a few minutes.\n\nWhen your finger is warm you put the pulse oximeter on your finger. Keep your hand steady and place your forearm flat on a firm surface.",
      "type": "text",
      "headline": "",
      "helpText": "",
      "helpImage": "null"
    },
    "end12": {
      "position": {
        "top": 1443.423241611084,
        "left": 1400.426114078125
      },
      "id": "end12",
      "type": "end"
    },
    "text89": {
      "type": "text",
      "headline": "",
      "text": "You are now done doing your measurements. On the next screen you will be asked to upload your data.\n\nNormally, answer \"Yes\" to this question.\n\nOnly answer \"No\" to uploading the data if there are measurements, that you do not wish to share.",
      "helpText": "",
      "helpImage": "null",
      "id": "text89",
      "position": {
        "top": 1300.3266267734375,
        "left": 1206.3067293125
      }
    },
    "text90": {
      "type": "text",
      "headline": "",
      "text": "Please get your weight out and push \"Next\" when you are ready to weigh yourself.\n",
      "helpText": "",
      "helpImage": "null",
      "id": "text90",
      "position": {
        "top": 1058.79256915625,
        "left": 1227.7983064609375
      }
    },
    "measurement91": {
      "type": "measurement",
      "measurementType": "WEIGHT",
      "measurementForm": "automatic",
      "headline": "Weight measurement",
      "shortText": "Weight measurement",
      "helpText": "",
      "helpImage": "null",
      "ctgSensitivityHigh": "true",
      "id": "measurement91",
      "position": {
        "top": 1168.8067903476563,
        "left": 1276.8039216953125
      }
    }
  },
  "connections": [
    {
      "source": "start1",
      "target": "text2",
      "severity": "",
      "type": "normal"
    },
    {
      "source": "text2",
      "target": "text5",
      "severity": "",
      "type": "normal"
    },
    {
      "source": "text10",
      "target": "measurement15",
      "severity": "",
      "type": "normal"
    },
    {
      "source": "text5",
      "target": "delay44",
      "severity": "",
      "type": "normal"
    },
    {
      "source": "delay44",
      "target": "measurement3",
      "severity": "",
      "type": "normal"
    },
    {
      "source": "text89",
      "target": "end12",
      "severity": "",
      "type": "normal"
    },
    {
      "source": "measurement3",
      "target": "text10",
      "severity": "",
      "measurementSkipped": "true",
      "type": "measurementSkipped"
    },
    {
      "source": "measurement3",
      "target": "text10",
      "severity": "",
      "type": "normal"
    },
    {
      "source": "measurement15",
      "target": "text90",
      "severity": "",
      "type": "normal"
    },
    {
      "source": "measurement15",
      "target": "text90",
      "severity": "",
      "measurementSkipped": "true",
      "type": "measurementSkipped"
    },
    {
      "source": "text90",
      "target": "measurement91",
      "severity": "",
      "type": "normal"
    },
    {
      "source": "measurement91",
      "target": "text89",
      "severity": "",
      "type": "normal"
    },
    {
      "source": "measurement91",
      "target": "text89",
      "severity": "",
      "measurementSkipped": "true",
      "type": "measurementSkipped"
    }
  ],
  "standardSchedule": {
    "type": "UNSCHEDULED",
    "timesOfDay[0].ampm": "AM",
    "reminderStartMinutes": "30",
    "blueAlarmTime.ampm": "PM",
    "reminderTime.ampm": "AM",
    "introPeriodWeeks": "4",
    "dayInterval": "2",
    "startingDate": "09-03-2016",
    "specificDate": "09-03-2016",
    "timesOfDay": [
      {
        "hour": "10",
        "minute": "00"
      }
    ],
    "reminderTime": {
      "hour": "10",
      "minute": "00"
    },
    "blueAlarmTime": {
      "hour": "23",
      "minute": "59"
    }
  }
}